{
	"window.title": "${dirty}${activeEditorShort}",
	"editor.fontFamily": "'monospace', monospace",
	"editor.fontLigatures": true,
	"editor.renderWhitespace": "all",
	"editor.snippetSuggestions": "top",
	"workbench.startupEditor": "none",
	"explorer.confirmDelete": false,
	"git.autofetch": true,
	"npm.packageManager": "npm",
	"workbench.colorCustomizations": {
		"sideBar.background": "#1e1e1e",
		"editor.background": "#181818"
	},
	"brightscript.output.focusOnLaunch": false,
	"brightscript.deviceDiscovery.enabled": false,
	"brightscript.debug.logfilePath": "/home/dusan/git/5.0_roku/brightscriptLog",
	"brightscript.debug.raleTrackerTaskFileLocation": "/home/dusan/git/5.0_roku/pluto-tv-roku/RALEComponent/TrackerTask.xml",
	"vim.camelCaseMotion.enable": true,
	"vim.enableNeovim": true,
	"vim.useSystemClipboard": true,
	"vim.useCtrlKeys": false,
	"vim.leader": "<space>",
	"vim.insertModeKeyBindings": [
		{ "before": [ "j", "k" ], "after": [ "<Esc>" ]},
	],
	"vim.normalModeKeyBindingsNonRecursive": [
		{ "before": [ "<leader>", "d" ], "after": [ "d", "d" ]},
	],
	"terminal.integrated.enablePersistentSessions": false,
	"terminal.integrated.persistentSessionReviveProcess": "never"
}
